{
  "StackName": "clearlink-cfn-network-stack",
  "DisableRollback": false,
  "Parameters": {
    "ParamEnvironment":"training",
    "ParamVpcCidr":    "172.22.48.0/21",
    "ParamDMZSubnet1": "172.22.48.64/26",
    "ParamDMZSubnet2": "172.22.48.0/26",
    "ParamAppSubnet1": "172.22.49.64/26",
    "ParamAppSubnet2": "172.22.49.0/26",
    "ParamDBSubnet1":  "172.22.50.64/26",
    "ParamDBSubnet2":  "172.22.50.0/26",
    "ParamALBCertARN": "arn:aws:acm:us-east-1:417857669004:certificate/adbc1927-16dc-4663-a2a0-2599b92528e8",
    "ParamEIPAllocationId": "eipalloc-0edc11b4402eb2509"
  },
  "Tags": {
    "Name": "clearlink-cfn-training-network",
    "environment": "training",
    "team": "nsa",
    "compliance": "sox",
    "platform": "cloudformation",
    "drt": "systemadmins@clearlink.com"
  },
  "StackPolicy": {
    "Statement": [
      {
        "Effect": "Allow",
        "NotAction": "Update:*",
        "Principal": "*",
        "Resource": "*"
      }
    ]
  }
}
